…
lpr_combined <- lpr2_joined_ddb |>
  dplyr::select(pnr, d_inddto, c_diag, c_diagtype) |>
  dplyr::union_all(lpr3_a_in_lpr2_format)


lpr_combined |> dplyr::collect()
# A tibble: 20,199 × 4
   pnr          d_inddto   c_diag c_diagtype
   <chr>        <date>     <chr>  <chr>     
 1 418524316931 2015-02-18 DC73   A         
 2 423702115506 2015-03-27 DX091  A         
 3 423702115506 2015-03-27 DH17   B         
 4 423702115506 2015-03-27 DM204  B           
 5 704948858170 2015-01-21 DV081  A         
 6 704948858170 2015-01-21 DE781  B         
 7 307120402203 2015-10-16 DO58   A         
 8 307120402203 2015-10-16 DS899  B         
 9 366797950745 2015-06-05 DG09   A         
10 366797950745 2015-06-05 DD124  B         
# ℹ 20,189 more rows
…
